Lab 2 (Ames housing)
…
We exploit advanced regression techniques to predict the price of the house using all the remaining input variables (covariates).

In other words, we will try to estimate a function f(\cdot) such that 
(\texttt{SalePrice}) = f(\texttt{GarageArea},\texttt{Neighborhood}, \dots) + \epsilon.

Pre-processing operations

A first look at the data

rm(list = ls())
library(tidyverse)
ames <- read_csv("../data/AmesHousing.csv", )
ames

# A tibble: 2,930 × 82
   Order PID    `MS SubClass` `MS Zoning` `Lot Frontage` `Lot Area` Street Alley
   <dbl> <chr>  <chr>         <chr>                <dbl>      <dbl> <chr>  <chr>
 1     1 05263… 020           RL                     141      31770 Pave   <NA> 
 2     2 05263… 020           RH                      80      11622 Pave   <NA> 
 3     3 05263… 020           RL                      81      14267 Pave   <NA> 
 4     4 05263… 020           RL                      93      11160 Pave   <NA> 
 5     5 05271… 060           RL                      74      13830 Pave   <NA> 
 6     6 05271… 060           RL                      78       9978 Pave   <NA> 
 7     7 05271… 120           RL                      41       4920 Pave   <NA> 
 8     8 05271… 120           RL                      43       5005 Pave   <NA> 
 9     9 05271… 120           RL                      39       5389 Pave   <NA> 
10    10 05271… 060           RL                      60       7500 Pave   <NA> 
# ℹ 2,920 more rows
# ℹ 74 more variables: `Lot Shape` <chr>, `Land Contour` <chr>,
#   Utilities <chr>, `Lot Config` <chr>, `Land Slope` <chr>,
#   Neighborhood <chr>, `Condition 1` <chr>, `Condition 2` <chr>,
#   `Bldg Type` <chr>, `House Style` <chr>, `Overall Qual` <dbl>,
#   `Overall Cond` <dbl>, `Year Built` <dbl>, `Year Remod/Add` <dbl>,
#   `Roof Style` <chr>, `Roof Matl` <chr>, `Exterior 1st` <chr>, …
…
